Penguins with Silge
…
penguins_split <- initial_split(penguins_df, strata=sex)
# strata determines the class that we would like to balance, this makes sure that the training/test sets will have the same proportions of penguins by sex.

penguin_train <- training(penguins_split)
penguin_test <- testing(penguins_split)

# Since the dataset we have is very small and we want to check the performance of different models,  we are going to do resampling to increase the size of our dataset.
set.seed(234)
penguin_boot <- bootstraps(penguin_train)
penguin_boot

## # Bootstrap sampling 
## # A tibble: 25 x 2
##    splits           id         
##    <list>           <chr>      
##  1 <split [250/93]> Bootstrap01
##  2 <split [250/99]> Bootstrap02
##  3 <split [250/93]> Bootstrap03
##  4 <split [250/99]> Bootstrap04
##  5 <split [250/92]> Bootstrap05
##  6 <split [250/91]> Bootstrap06
##  7 <split [250/85]> Bootstrap07
##  8 <split [250/93]> Bootstrap08
##  9 <split [250/90]> Bootstrap09
## 10 <split [250/89]> Bootstrap10
## # ... with 15 more rows
…
